Prep for DataHaven's Community Wellbeing Index • cwi
…
  regions = regions[c("Greater New Haven", "New Haven Inner Ring", "New Haven Outer Ring")],
  counties = "New Haven",
  towns = regions[["Greater New Haven"]],
  us = TRUE
)
#> 
#> ── Table B25003: TENURE, 2020 ──────────────────────────────────────────────────
#> • Towns: Bethany, Branford, East Haven, Guilford, Hamden, Madison, Milford, New
#> Haven, North Branford, North Haven, Orange, West Haven, Woodbridge
#> • Regions: Greater New Haven, New Haven Inner Ring, New Haven Outer Ring
#> • Counties: New Haven County
#> • State: 09
#> • US: Yes
tenure
#> # A tibble: 57 × 9
#>     year level    state       county geoid name         variable estimate    moe
#>    <dbl> <fct>    <chr>       <chr>  <chr> <chr>        <chr>       <dbl>  <dbl>
#>  1  2020 1_us     <NA>        <NA>   1     United Stat… B25003_…   1.22e8 211970
#>  2  2020 1_us     <NA>        <NA>   1     United Stat… B25003_…   7.88e7 342600
#>  3  2020 1_us     <NA>        <NA>   1     United Stat… B25003_…   4.36e7 134985
#>  4  2020 2_state  <NA>        <NA>   09    Connecticut  B25003_…   1.39e6   3268
#>  5  2020 2_state  <NA>        <NA>   09    Connecticut  B25003_…   9.15e5   5015
#>  6  2020 2_state  <NA>        <NA>   09    Connecticut  B25003_…   4.70e5   4548
#>  7  2020 3_county Connecticut <NA>   09009 New Haven C… B25003_…   3.33e5   1647
#>  8  2020 3_county Connecticut <NA>   09009 New Haven C… B25003_…   2.07e5   2123
#>  9  2020 3_county Connecticut <NA>   09009 New Haven C… B25003_…   1.26e5   2225
#> 10  2020 4_region Connecticut <NA>   <NA>  Greater New… B25003_…   1.76e5   1834
#> # ℹ 47 more rows
…
