…
  year = 2018,
  regions = regions[c("Greater New Haven", "New Haven Inner Ring", "New Haven Outer Ring")],
  counties = "New Haven",
  towns = regions[["Greater New Haven"]],
  us = TRUE
)
#> Table B25003: TENURE
#> Geographies included:
#> Towns: Bethany, Branford, East Haven, Guilford, Hamden, Madison, Milford, New Haven, North Branford, North Haven, Orange, West Haven, Woodbridge
#> Regions: Greater New Haven, New Haven Inner Ring, New Haven Outer Ring
#> Counties: New Haven County
#> State: 09
#> US: Yes
tenure
#> # A tibble: 57 x 9
#>    GEOID NAME            variable   estimate    moe level     state county  year
#>    <chr> <chr>           <chr>         <dbl>  <dbl> <fct>     <chr> <chr>  <dbl>
#>  1 1     United States   B25003_001   1.20e8 232429 1_us      <NA>  <NA>    2018
#>  2 1     United States   B25003_002   7.64e7 367132 1_us      <NA>  <NA>    2018
#>  3 1     United States   B25003_003   4.33e7 139467 1_us      <NA>  <NA>    2018
#>  4 09    Connecticut     B25003_001   1.37e6   3671 2_state   <NA>  <NA>    2018
#>  5 09    Connecticut     B25003_002   9.07e5   4800 2_state   <NA>  <NA>    2018
#>  6 09    Connecticut     B25003_003   4.60e5   3488 2_state   <NA>  <NA>    2018
#>  7 09009 New Haven Coun… B25003_001   3.30e5   1775 3_counti… 09    <NA>    2018
#>  8 09009 New Haven Coun… B25003_002   2.04e5   1887 3_counti… 09    <NA>    2018
#>  9 09009 New Haven Coun… B25003_003   1.26e5   1974 3_counti… 09    <NA>    2018
#> 10 <NA>  Greater New Ha… B25003_001   1.77e5   1531 4_regions <NA>  <NA>    2018
#> # … with 47 more rows
```
…
