Fetch an ACS table with multiple geography levels — multi_geo_acs • cwi
…
    Examples

# \dontrun{
multi_geo_acs("B01003", 2016,
  towns = "all",
  regions = list(inner_ring = c("Hamden", "East Haven", "West Haven")),
  counties = "New Haven County",
  tracts = unique(nhv_tracts$geoid))
#> Table B01003: TOTAL POPULATION
#> Geographies included:
#> Towns: all
#> Regions: inner_ring
#> Counties: New Haven County
#> State: 09
#> # A tibble: 61 x 9
#>    GEOID    NAME        variable  estimate   moe level   state county       year
#>    <chr>    <chr>       <chr>        <dbl> <dbl> <fct>   <chr> <chr>       <dbl>
#>  1 09       Connecticut B01003_0…  3588570    NA 1_state <NA>  <NA>         2016
#>  2 09009    New Haven … B01003_0…   860874    NA 2_coun… 09    <NA>         2016
#>  3 <NA>     inner_ring  B01003_0…   145463    57 3_regi… <NA>  <NA>         2016
#>  4 0900901… Ansonia     B01003_0…    18950    30 4_towns 09    New Haven …  2016
#>  5 0900903… Beacon Fal… B01003_0…     6075    20 4_towns 09    New Haven …  2016
#>  6 0900904… Bethany     B01003_0…     5521    24 4_towns 09    New Haven …  2016
#>  7 0900907… Branford    B01003_0…    28084    28 4_towns 09    New Haven …  2016
#>  8 0900914… Cheshire    B01003_0…    29254    40 4_towns 09    New Haven …  2016
#>  9 0900919… Derby       B01003_0…    12755    25 4_towns 09    New Haven …  2016
#> 10 0900922… East Haven  B01003_0…    29015    24 4_towns 09    New Haven …  2016
#> # … with 51 more rows
…
