Proxy PUMAs — proxy_pumas • cwi
…
# proxies made from COG-based PUMAs
proxy_pumas$cog
#> # A tibble: 54 × 6
#>    puma    region              pop    hh pop_weight hh_weight
#>    <chr>   <chr>             <dbl> <dbl>      <dbl>     <dbl>
#>  1 0920703 Fairfield County  41206 15774      0.258     0.248
#>  2 0920801 Fairfield County 148470 55550      1         1    
#>  3 0920802 Fairfield County 177911 61947      1         1    
#>  4 0920901 Fairfield County 198911 76182      1         1    
#>  5 0920902 Fairfield County 104825 36465      1         1    
#>  6 0920903 Fairfield County 118282 44997      1         1    
#>  7 0920904 Fairfield County 168766 61392      0.850     0.843
#>  8 0920201 Greater Hartford 121057 48277      1         1    
#>  9 0920202 Greater Hartford 158475 62259      1         1    
#> 10 0920203 Greater Hartford 116015 40349      1         1    
#> # ℹ 44 more rows
…
