Basic workflow • cwi
…
Using label_acs(), join the race tibble with the acs_vars dataset to get variable labels. Oftentimes, these labels need to be separated by their "!!" delimeter.

Group by the geographic level, county, and name.

Call camiller::add_grps with a list of racial groups and their labels’ positions in the label column. This gives estimates and, optionally, margins of error for aggregates

camiller::calc_shares then gives shares of each group’s estimate over the "total" denominator.

gnh_data$race %>%
  label_acs() %>% 
  group_by(level, county, NAME) %>%
  add_grps(list(total = 1, white = 3, black = 4, latino = 12, other = 5:9), group = label) %>%
  calc_shares(group = label, denom = "total")
#> # A tibble: 90 x 6
#> # Groups:   level, county, NAME [18]
#>    level      county NAME             label  estimate  share
#>    <chr>      <chr>  <chr>            <fct>     <dbl>  <dbl>
#>  1 1_state    <NA>   Connecticut      total   3588570 NA    
#>  2 1_state    <NA>   Connecticut      black    347674  0.097
#>  3 1_state    <NA>   Connecticut      latino   537728  0.15 
#>  4 1_state    <NA>   Connecticut      other    238718  0.067
#>  5 1_state    <NA>   Connecticut      white   2464450  0.687
#>  6 2_counties <NA>   New Haven County total    860874 NA    
#>  7 2_counties <NA>   New Haven County black    104831  0.122
#>  8 2_counties <NA>   New Haven County latino   144549  0.168
#>  9 2_counties <NA>   New Haven County other     53796  0.062
#> 10 2_counties <NA>   New Haven County white    557698  0.648
#> # ... with 80 more rows
…
I’m also interested in learning about employment by industry over the past several years. qwi_industry fetches county-level data by industry over time, either quarterly or annually. Here I’ll look at annual averages of all industries for New Haven County and Connecticut over the past 16 years. I’m filtering out the industry code “00”, which is the counts for all industries.

nhc_employment <- qwi_industry(2002:2017, counties = "009", annual = T) %>%
  mutate(location = "New Haven County")
#> The API can only get 10 years of data at once; making multiple calls, but this might take a little longer.
ct_employment <- qwi_industry(2002:2017, annual = T) %>%
  mutate(location = "Connecticut")
#> The API can only get 10 years of data at once; making multiple calls, but this might take a little longer.
employment <- bind_rows(nhc_employment, ct_employment) %>%
  filter(industry != "00") %>%
  inner_join(naics_codes %>% select(-ind_level), by = "industry")

employment
#> # A tibble: 640 x 8
#>     year industry state county   Emp  Payroll location    label           
#>    <dbl> <chr>    <chr> <chr>  <dbl>    <dbl> <chr>       <chr>           
#>  1  2002 11       09    009      707   1.67e7 New Haven … Agriculture, Fo…
#>  2  2002 21       09    009      194   1.01e7 New Haven … Mining, Quarryi…
#>  3  2002 22       09    009     1931   1.28e8 New Haven … Utilities       
#>  4  2002 23       09    009    15484   7.65e8 New Haven … Construction    
#>  5  2002 31-33    09    009    48176   2.42e9 New Haven … Manufacturing   
#>  6  2002 42       09    009    16640   9.41e8 New Haven … Wholesale Trade 
#>  7  2002 44-45    09    009    46760   1.21e9 New Haven … Retail Trade    
#>  8  2002 48-49    09    009     7642   2.57e8 New Haven … Transportation …
#>  9  2002 51       09    009    14901   7.89e8 New Haven … Information     
#> 10  2002 52       09    009    13571   8.03e8 New Haven … Finance and Ins…
#> # ... with 630 more rows
…
Now we have a visual that shows that in a few industries, wages have climbed over the past several years, but in many industries, wages haven’t increased except by inflation.

Local Area Unemployment Statistics

To look at unemployment rates over time, I can use laus_trend. The LAUS covers smaller geographies than the QWI, so laus_trend is set up to find data by a combination of state, counties, or towns. The LAUS API returns monthly data on labor force counts, employment counts, unemployed counts, and unemployment rate; laus_trend lets you specify which of these measures to fetch.

unemployment <- laus_trend(c("New Haven", "New Haven County", "Connecticut"), startyear = 2000, endyear = 2017, measures = "unemployment rate") %>%
  mutate(date = paste(year, periodName, "01", sep = "-") %>% lubridate::ymd()) %>%
  mutate(value = value / 100) %>%
  select(area, date, value)
#> REQUEST_SUCCEEDED

unemployment
#> # A tibble: 648 x 3
#>    area        date        value
#>    <chr>       <date>      <dbl>
#>  1 Connecticut 2017-12-01 0.04  
#>  2 Connecticut 2017-11-01 0.0410
#>  3 Connecticut 2017-10-01 0.0410
#>  4 Connecticut 2017-09-01 0.042 
#>  5 Connecticut 2017-08-01 0.047 
#>  6 Connecticut 2017-07-01 0.049 
#>  7 Connecticut 2017-06-01 0.048 
#>  8 Connecticut 2017-05-01 0.047 
#>  9 Connecticut 2017-04-01 0.047 
#> 10 Connecticut 2017-03-01 0.051 
#> # ... with 638 more rows
…
