ACS updates • cwi
…
      Working with Community Wellbeing Survey crosstabs

      Shapefiles

  Changelog

      ACS updates

      Source: vignettes/acs-updates.Rmd
      acs-updates.Rmd

2020 ACS

#> # A tibble: 1,140 × 3
#>    table_num concept_2019                                           concept_2020
#>    <chr>     <chr>                                                  <chr>       
#>  1 B01001    SEX BY AGE                                             SEX BY AGE  
#>  2 B01001A   SEX BY AGE (WHITE ALONE)                               SEX BY AGE …
#>  3 B01001B   SEX BY AGE (BLACK OR AFRICAN AMERICAN ALONE)           SEX BY AGE …
#>  4 B01001C   SEX BY AGE (AMERICAN INDIAN AND ALASKA NATIVE ALONE)   SEX BY AGE …
#>  5 B01001D   SEX BY AGE (ASIAN ALONE)                               SEX BY AGE …
#>  6 B01001E   SEX BY AGE (NATIVE HAWAIIAN AND OTHER PACIFIC ISLANDE… SEX BY AGE …
#>  7 B01001F   SEX BY AGE (SOME OTHER RACE ALONE)                     SEX BY AGE …
#>  8 B01001G   SEX BY AGE (TWO OR MORE RACES)                         SEX BY AGE …
#>  9 B01001H   SEX BY AGE (WHITE ALONE, NOT HISPANIC OR LATINO)       SEX BY AGE …
#> 10 B01001I   SEX BY AGE (HISPANIC OR LATINO)                        SEX BY AGE …
#> # … with 1,130 more rows
…
