Basic workflow • cwi
…
Neighborhoods with corresponding tracts or block groups are included for 4 cities (see neighborhood_tracts). Pass those to get neighborhood-level aggregates.

multi_geo_acs("B01003", towns = "New Haven", counties = "New Haven", neighborhoods = new_haven_tracts)
#> Table B01003: TOTAL POPULATION, 2019
#> Geographies included:
#> Neighborhoods: 19 neighborhoods
#> Towns: New Haven
#> Counties: New Haven County
#> State: 09
#> Assuming neighborhood GEOIDs are for tracts
#> # A tibble: 26 × 9
#>    geoid      name             variable  estimate   moe level state county  year
#>    <chr>      <chr>            <chr>        <dbl> <dbl> <fct> <chr> <chr>  <dbl>
#>  1 09         Connecticut      B01003_0…  3575074    NA 1_st… NA    NA      2019
#>  2 09009      New Haven County B01003_0…   857513    NA 2_co… 09    NA      2019
#>  3 0900952070 New Haven        B01003_0…   130331    47 3_to… 09    New H…  2019
#>  4 NA         Amity            B01003_0…     4730   504 4_ne… 09    New H…  2019
#>  5 NA         Annex            B01003_0…     7296   851 4_ne… 09    New H…  2019
#>  6 NA         Beaver Hills     B01003_0…     4943   461 4_ne… 09    New H…  2019
#>  7 NA         Dixwell          B01003_0…     5149   470 4_ne… 09    New H…  2019
#>  8 NA         Downtown         B01003_0…     7616   619 4_ne… 09    New H…  2019
#>  9 NA         Dwight           B01003_0…     3874   548 4_ne… 09    New H…  2019
#> 10 NA         East Rock        B01003_0…     8625  1154 4_ne… 09    New H…  2019
#> # … with 16 more rows
…
Using label_acs(), join the race tibble with the cwi::acs_vars dataset to get variable labels. Oftentimes, these labels need to be separated by their "!!" delimeter.

Group by the geographic level, county, and name.

Call camiller::add_grps() with a list of racial groups and their labels’ positions in the label column. This gives estimates and, optionally, margins of error for aggregates

camiller::calc_shares() then gives shares of each group’s estimate over the "total" denominator.

gnh_data$race %>%
  label_acs(year = yr) %>% 
  group_by(level, county, name) %>%
  add_grps(list(total = 1, white = 3, black = 4, latino = 12, other = 5:9), group = label) %>%
  calc_shares(group = label, denom = "total")
#> # A tibble: 90 × 6
#> # Groups:   level, county, name [18]
#>    level      county name             label  estimate  share
#>    <fct>      <chr>  <chr>            <fct>     <dbl>  <dbl>
#>  1 1_state    NA     Connecticut      total   3575074 NA    
#>  2 1_state    NA     Connecticut      white   2392013  0.669
#>  3 1_state    NA     Connecticut      black    354120  0.099
#>  4 1_state    NA     Connecticut      latino   574240  0.161
#>  5 1_state    NA     Connecticut      other    254701  0.071
#>  6 2_counties NA     New Haven County total    857513 NA    
#>  7 2_counties NA     New Haven County white    539298  0.629
#>  8 2_counties NA     New Haven County black    107111  0.125
#>  9 2_counties NA     New Haven County latino   155335  0.181
#> 10 2_counties NA     New Haven County other     55769  0.065
#> # … with 80 more rows
…
I’m also interested in learning about employment by industry over the past several years. qwi_industry() fetches county-level data by industry over time, either quarterly or annually. Here I’ll look at annual averages of all industries for New Haven County and Connecticut over the past 16 years. I’m filtering out the industry code “00”, which is the counts for all industries.

nhc_employment <- qwi_industry(2002:2018, counties = "009", annual = TRUE) %>%
  mutate(location = "New Haven County")
#> The API can only get 10 years of data at once; making multiple calls, but this might take a little longer.
ct_employment <- qwi_industry(2002:2018, annual = T) %>%
  mutate(location = "Connecticut")
#> The API can only get 10 years of data at once; making multiple calls, but this might take a little longer.
employment <- bind_rows(nhc_employment, ct_employment) %>%
  filter(industry != "00") %>%
  inner_join(naics_codes %>% select(-ind_level), by = "industry")

employment
#> # A tibble: 680 × 8
#>     year industry state county   Emp Payroll location         label             
#>    <dbl> <chr>    <chr> <chr>  <dbl>   <dbl> <chr>            <chr>             
#>  1  2002 11       09    009      713      NA New Haven County Agriculture, Fore…
#>  2  2002 21       09    009      206      NA New Haven County Mining, Quarrying…
#>  3  2002 22       09    009     1919      NA New Haven County Utilities         
#>  4  2002 23       09    009    15480      NA New Haven County Construction      
#>  5  2002 31-33    09    009    48366      NA New Haven County Manufacturing     
#>  6  2002 42       09    009    16874      NA New Haven County Wholesale Trade   
#>  7  2002 44-45    09    009    46246      NA New Haven County Retail Trade      
#>  8  2002 48-49    09    009     7775      NA New Haven County Transportation an…
#>  9  2002 51       09    009    14417      NA New Haven County Information       
#> 10  2002 52       09    009    13351      NA New Haven County Finance and Insur…
#> # … with 670 more rows
…
Now we have a visual that shows that in a few industries, wages have climbed over the past several years, but in many industries, wages haven’t increased except by inflation.

Local Area Unemployment Statistics

To look at unemployment rates over time, I can use laus_trend(). The LAUS covers smaller geographies than the QWI, so laus_trend() is set up to find data by a combination of state, counties, or towns. The LAUS API returns monthly data on labor force counts, employment counts, unemployed counts, and unemployment rate; laus_trend() lets you specify which of these measures to fetch.

unemployment <- laus_trend(c("New Haven", "New Haven County", "Connecticut"), startyear = 2000, endyear = 2018, measures = "unemployment rate") %>%
  mutate(date = paste(year, periodName, "01", sep = "-") %>% lubridate::ymd()) %>%
  mutate(value = value / 100) %>%
  select(area, date, value)

unemployment
#> # A tibble: 684 × 3
#>    area        date       value
#>    <chr>       <date>     <dbl>
#>  1 Connecticut 2018-12-01 0.032
#>  2 Connecticut 2018-11-01 0.03 
#>  3 Connecticut 2018-10-01 0.035
#>  4 Connecticut 2018-09-01 0.035
#>  5 Connecticut 2018-08-01 0.04 
#>  6 Connecticut 2018-07-01 0.041
#>  7 Connecticut 2018-06-01 0.042
#>  8 Connecticut 2018-05-01 0.038
#>  9 Connecticut 2018-04-01 0.038
#> 10 Connecticut 2018-03-01 0.043
#> # … with 674 more rows
…
