Working with Community Wellbeing Survey crosstabs • cwi
…
Combining demographic groups

Say we want to collapse those income brackets into just 3 groups. For
that, use the weights table…and fix the group labels in the weights
table to match the ones from the data (I’m only doing this for income,
but education often needs reconciling as well). Obviously there won’t be
weights for the total group; in doing weighted means, the easiest fix is
to replace NAs with 1. (FYI, groups Yes and No correspond to the
category of having children in the household.)

wts_in <- read_weights(system.file("extdata/test_xtab2015.xlsx", package = "cwi"))
wts_in
#> # A tibble: 23 × 2
#>    group                  weight
#>    <chr>                   <dbl>
#>  1 Male                    0.47 
#>  2 Female                  0.53 
#>  3 18 to 34                0.292
#>  4 35 to 49                0.244
#>  5 50 to 64                0.236
#>  6 65 and older            0.173
#>  7 White                   0.727
#>  8 African American/Black  0.158
#>  9 Hispanic                0.109
#> 10 Other                   0.103
#> # ℹ 13 more rows
…
income_lvls <- list(
  "<$30K" = c("<$15K", "$15K-$30K"),
  "$30K-$100K" = c("$30K-$50K", "$50K-$75K", "$75K-$100K"),
  "$100K+" = c("$100K-$200K", "$200K+")
)

cws |>
  filter(code == "Q8", category %in% c("Greater New Haven", "Income")) |>
  left_join(wts, by = "group") |>
  mutate(across(category:response, forcats::as_factor)) |>
  tidyr::replace_na(list(weight = 1)) |>
  collapse_n_wt(c(code, category:response), .lvls = income_lvls)
#> # A tibble: 28 × 5
#>    code  category          group             response      value
#>    <chr> <fct>             <fct>             <fct>         <dbl>
#>  1 Q8    Greater New Haven Greater New Haven Very often   0.82  
#>  2 Q8    Greater New Haven Greater New Haven Fairly often 0.04  
#>  3 Q8    Greater New Haven Greater New Haven Sometimes    0.06  
#>  4 Q8    Greater New Haven Greater New Haven Almost never 0.02  
#>  5 Q8    Greater New Haven Greater New Haven Never at all 0.06  
#>  6 Q8    Greater New Haven Greater New Haven Don't know   0     
#>  7 Q8    Greater New Haven Greater New Haven Refused      0     
#>  8 Q8    Income            <$30K             Very often   0.597 
#>  9 Q8    Income            <$30K             Fairly often 0.0697
#> 10 Q8    Income            <$30K             Sometimes    0.124 
#> # ℹ 18 more rows

Rescaling

We generally want to remove non-answers (don’t know, refused) from
the denominator, then rescale the response values. Usually those
non-answers only account for 1 or 2 percentage points and don’t change
values much, but occasionally they’re large enough to make a noticeable
difference. For consistency, I always remove non-answers, even when
they’re small.

With non-answers:

cws |>
  filter(code == "Q1", category %in% c("Greater New Haven", "Gender", "Age"))
#> # A tibble: 28 × 6
#>    code  question                                  category group response value
#>    <chr> <chr>                                     <chr>    <chr> <chr>    <dbl>
#>  1 Q1    Are you satisfied with the city or area … Greater… Grea… Yes       0.82
#>  2 Q1    Are you satisfied with the city or area … Gender   M     Yes       0.8 
#>  3 Q1    Are you satisfied with the city or area … Gender   F     Yes       0.84
#>  4 Q1    Are you satisfied with the city or area … Age      18-34 Yes       0.85
#>  5 Q1    Are you satisfied with the city or area … Age      35-49 Yes       0.77
#>  6 Q1    Are you satisfied with the city or area … Age      50-64 Yes       0.83
#>  7 Q1    Are you satisfied with the city or area … Age      65+   Yes       0.86
#>  8 Q1    Are you satisfied with the city or area … Greater… Grea… No        0.17
#>  9 Q1    Are you satisfied with the city or area … Gender   M     No        0.18
#> 10 Q1    Are you satisfied with the city or area … Gender   F     No        0.15
#> # ℹ 18 more rows
…
