Basic workflow • cwi
…
Fetching data from ACS

I’m pulling out the entries in the cwi dataset cwi::regions (a list) to only include the Greater New Haven-area ones. Then I fetch the ACS tables for those regions, their towns, and New Haven County.

gnh_regions <- regions[c("Greater New Haven", "New Haven Inner Ring", "New Haven Outer Ring")]

gnh_data <- map(table_nums, multi_geo_acs,
    year = yr, towns = regions$`Greater New Haven`,
    regions = gnh_regions, state = "09", sleep = 1,
    verbose = FALSE
)

gnh_data$total_pop
#> # A tibble: 26 × 9
#>     year level    state       county geoid name          variable estimate   moe
#>    <dbl> <fct>    <chr>       <chr>  <chr> <chr>         <chr>       <dbl> <dbl>
#>  1  2023 1_state  <NA>        <NA>   09    Connecticut   B01003_…  3598348    NA
#>  2  2023 2_county Connecticut <NA>   09110 Capitol COG   B01003_…   969029    NA
#>  3  2023 2_county Connecticut <NA>   09120 Greater Brid… B01003_…   326296    NA
#>  4  2023 2_county Connecticut <NA>   09130 Lower Connec… B01003_…   174983    NA
#>  5  2023 2_county Connecticut <NA>   09140 Naugatuck Va… B01003_…   452303    NA
#>  6  2023 2_county Connecticut <NA>   09150 Northeastern… B01003_…    95829    NA
#>  7  2023 2_county Connecticut <NA>   09160 Northwest Hi… B01003_…   112848    NA
#>  8  2023 2_county Connecticut <NA>   09170 South Centra… B01003_…   566803    NA
#>  9  2023 2_county Connecticut <NA>   09180 Southeastern… B01003_…   279025    NA
#> 10  2023 2_county Connecticut <NA>   09190 Western Conn… B01003_…   621232    NA
#> # ℹ 16 more rows
…
Using label_acs(), join the race tibble with the cwi::acs_vars dataset to get variable labels. Oftentimes, these labels need to be separated by their "!!" delimeter.

Group by the geographic level, county, and name.

Call camiller::add_grps() with a list of racial groups and their labels’ positions in the label column. This gives estimates and, optionally, margins of error for aggregates

camiller::calc_shares() then gives shares of each group’s estimate over the "total" denominator.

gnh_data$race |>
    label_acs(year = yr) |>
    group_by(level, name) |>
    add_grps(list(total = 1, white = 3, black = 4, latino = 12, other = 5:9), group = label) |>
    calc_shares(group = label, denom = "total")
#> # A tibble: 130 × 5
#> # Groups:   level, name [26]
#>    level    name        label  estimate share
#>    <fct>    <chr>       <fct>     <dbl> <dbl>
#>  1 1_state  Connecticut total   3598348 NA   
#>  2 1_state  Connecticut white   2265780  0.63
#>  3 1_state  Connecticut black    355413  0.1 
#>  4 1_state  Connecticut latino   640668  0.18
#>  5 1_state  Connecticut other    336487  0.09
#>  6 2_county Capitol COG total    969029 NA   
#>  7 2_county Capitol COG white    590481  0.61
#>  8 2_county Capitol COG black    111597  0.12
#>  9 2_county Capitol COG latino   168439  0.17
#> 10 2_county Capitol COG other     98512  0.1 
#> # ℹ 120 more rows

With the tenure table, it’s easiest to separate the labels by "!!". Here the table can be wrangled into shares of households that are owner-occupied.

homeownership <- gnh_data$tenure |>
    label_acs(year = yr) |>
    separate(label, into = c("total", "tenure"), sep = "!!", fill = "left") |>
    select(level, name, tenure, estimate) |>
    group_by(level, name) |>
    calc_shares(group = tenure, denom = "Total") |>
    filter(tenure == "Owner occupied")

homeownership
#> # A tibble: 26 × 5
#> # Groups:   level, name [26]
#>    level    name                               tenure         estimate share
#>    <fct>    <chr>                              <fct>             <dbl> <dbl>
#>  1 1_state  Connecticut                        Owner occupied   939912  0.66
#>  2 2_county Capitol COG                        Owner occupied   254424  0.65
#>  3 2_county Greater Bridgeport COG             Owner occupied    77362  0.65
#>  4 2_county Lower Connecticut River Valley COG Owner occupied    55387  0.75
#>  5 2_county Naugatuck Valley COG               Owner occupied   120630  0.68
#>  6 2_county Northeastern Connecticut COG       Owner occupied    29835  0.76
#>  7 2_county Northwest Hills COG                Owner occupied    35683  0.76
#>  8 2_county South Central Connecticut COG      Owner occupied   137908  0.61
#>  9 2_county Southeastern Connecticut COG       Owner occupied    74923  0.65
#> 10 2_county Western Connecticut COG            Owner occupied   153760  0.66
#> # ℹ 16 more rows
…
Quarterly Workforce Indicators

I’m also interested in learning about employment by industry over the past several years. qwi_industry() fetches county-level data by industry over time, either quarterly or annually. Here I’ll look at annual averages of all industries for South Central COG and Connecticut over the past 16 years. I’m filtering out the industry code “00”, which is the counts for all industries.

scc_employment <- qwi_industry(2002:2018, counties = "170", annual = TRUE) |>
    mutate(location = "South Central COG")
ct_employment <- qwi_industry(2002:2018, annual = TRUE) |>
    mutate(location = "Connecticut")
employment <- bind_rows(scc_employment, ct_employment) |>
    filter(industry != "00") |>
    inner_join(naics_codes |> select(-ind_level), by = "industry")

employment
#> # A tibble: 680 × 8
#>     year state county industry     emp payroll location          label          
#>    <dbl> <chr> <chr>  <chr>      <dbl>   <dbl> <chr>             <chr>          
#>  1  2002 09    170    11         385.       NA South Central COG Agriculture, F…
#>  2  2002 09    170    21          31.2      NA South Central COG Mining, Quarry…
#>  3  2002 09    170    22        1093.       NA South Central COG Utilities      
#>  4  2002 09    170    23       11146.       NA South Central COG Construction   
#>  5  2002 09    170    31-33    33445.       NA South Central COG Manufacturing  
#>  6  2002 09    170    42       11496.       NA South Central COG Wholesale Trade
#>  7  2002 09    170    44-45    32976.       NA South Central COG Retail Trade   
#>  8  2002 09    170    48-49     5738        NA South Central COG Transportation…
#>  9  2002 09    170    51       11863.       NA South Central COG Information    
#> 10  2002 09    170    52       10686.       NA South Central COG Finance and In…
#> # ℹ 670 more rows
…
Local Area Unemployment Statistics

To look at unemployment rates over time, I can use laus_trend(). The LAUS covers smaller geographies than the QWI, so laus_trend() is set up to find data by a combination of state, counties, or towns. The LAUS API returns monthly data on labor force counts, employment counts, unemployed counts, and unemployment rate; laus_trend() lets you specify which of these measures to fetch.

unemployment <- laus_trend(c("New Haven", "New Haven County", "Connecticut"),
    startyear = 2000, endyear = 2018, measures = "unemployment rate"
) |>
    mutate(unemployment_rate = unemployment_rate / 100) |>
    select(area, date, value = unemployment_rate)

unemployment
#> # A tibble: 456 × 3
#>    area        date       value
#>    <chr>       <date>     <dbl>
#>  1 Connecticut 2000-01-01 0.028
#>  2 New Haven   2000-01-01 0.038
#>  3 Connecticut 2000-02-01 0.029
#>  4 New Haven   2000-02-01 0.037
#>  5 Connecticut 2000-03-01 0.024
#>  6 New Haven   2000-03-01 0.033
#>  7 Connecticut 2000-04-01 0.019
#>  8 New Haven   2000-04-01 0.029
#>  9 Connecticut 2000-05-01 0.021
#> 10 New Haven   2000-05-01 0.032
#> # ℹ 446 more rows
…
